<svg fill="none" height="30" width="30" xmlns="http://www.w3.org/2000/svg">
	<path
		d="M15 6.25v-5L8.75 7.5 15 13.75v-5c4.137 0 7.5 3.363 7.5 7.5 0 4.137-3.363 7.5-7.5 7.5a7.506 7.506 0 01-7.5-7.5H5c0 5.525 4.475 10 10 10s10-4.475 10-10-4.475-10-10-10z"
		fill="#3A3F6B"/>
</svg>
